Análises exploratórias dos dados do experimento – Impacto de diferentes níveis de desfolha artificial no algodoeiro
…
Agora, plotaremos os gráficos de linhas para cada variável análisada para verificar a tendência dos dados.

Peso médio das maçãs

# Filtrar apenas linhas com valores válidos de 'weight'
dados_validos <- dat %>%
  filter(!is.na(weight)) 

#head(dados_validos)
#str(dados_validos)
#colnames(dados_validos)
dados_validos %>%
  group_by(stage, defoliation)

# A tibble: 125 × 9
# Groups:   stage, defoliation [25]
   stage      defoliation plant rep   reproductive bolls height nodes weight
   <fct>            <int> <int> <fct>        <int> <int>  <dbl> <int>  <dbl>
 1 vegetative           0     1 R1               5     5   73      16   33.2
 2 vegetative           0     1 R2               4     4   63      17   28.7
 3 vegetative           0     1 R3               4     4   65.5    14   31.5
 4 vegetative           0     1 R4               6     5   85      15   28.9
 5 vegetative           0     1 R5               5     5   72      15   36.4
 6 vegetative          25     1 R1               5     5   77      15   34.1
 7 vegetative          25     1 R2               5     5   74      17   30.0
 8 vegetative          25     1 R3               6     5   59      10   37.3
 9 vegetative          25     1 R4               5     5   81      14   27.9
10 vegetative          25     1 R5               5     5   75      13   29.3
# ℹ 115 more rows
…
